# Blender v2.79 (sub 0) OBJ File: 'SeaTemple1.blend'
# www.blender.org
mtllib SeaTempleFloorCircle_Low.mtl
o Circle.001_Circle.005
v 0.721939 -0.086425 -1.680147
v 0.380287 -0.086425 -1.788707
v 0.024020 -0.086425 -1.828528
v -0.333170 -0.086425 -1.798079
v -0.677556 -0.086425 -1.698532
v -0.995904 -0.086425 -1.533710
v -1.275980 -0.086425 -1.309949
v -1.507020 -0.086425 -1.035848
v -1.680147 -0.086425 -0.721939
v -1.788707 -0.086425 -0.380287
v -1.828528 -0.086425 -0.024021
v -1.798079 -0.086425 0.333169
v -1.698532 -0.086425 0.677555
v -1.533710 -0.086425 0.995904
v -1.309949 -0.086425 1.275980
v -1.035847 -0.086425 1.507021
v -0.721939 -0.086425 1.680147
v -0.380286 -0.086425 1.788708
v -0.024019 -0.086425 1.828527
v 0.333171 -0.086425 1.798079
v 0.677557 -0.086425 1.698531
v 0.995905 -0.086425 1.533710
v 1.275981 -0.086425 1.309948
v 1.507021 -0.086425 1.035847
v 1.680148 -0.086425 0.721937
v 1.788708 -0.086425 0.380285
v 1.828528 -0.086425 0.024018
v 1.798079 -0.086425 -0.333172
v 1.698531 -0.086425 -0.677558
v 1.533709 -0.086425 -0.995906
v 1.309947 -0.086425 -1.275982
v 1.035845 -0.086425 -1.507022
v 0.713326 -0.053832 -1.660102
v 0.375750 -0.053832 -1.767367
v 0.023733 -0.053832 -1.806713
v -0.329195 -0.053832 -1.776628
v -0.669472 -0.053832 -1.678267
v -0.984022 -0.053832 -1.515412
v -1.260756 -0.053832 -1.294321
v -1.489041 -0.053832 -1.023489
v -1.660102 -0.053832 -0.713326
v -1.767367 -0.053832 -0.375750
v -1.806712 -0.053832 -0.023734
v -1.776627 -0.053832 0.329194
v -1.678267 -0.053832 0.669472
v -1.515412 -0.053832 0.984022
v -1.294321 -0.053832 1.260756
v -1.023489 -0.053832 1.489041
v -0.713325 -0.053832 1.660103
v -0.375749 -0.053832 1.767366
v -0.023733 -0.053832 1.806712
v 0.329196 -0.053832 1.776627
v 0.669473 -0.053832 1.678267
v 0.984023 -0.053832 1.515411
v 1.260758 -0.053832 1.294320
v 1.489042 -0.053832 1.023488
v 1.660103 -0.053832 0.713325
v 1.767367 -0.053832 0.375748
v 1.806713 -0.053832 0.023732
v 1.776627 -0.053832 -0.329197
v 1.678266 -0.053832 -0.669474
v 1.515411 -0.053832 -0.984024
v 1.294319 -0.053832 -1.260758
v 1.023487 -0.053832 -1.489042
v 0.380287 -0.053832 -1.788707
v 0.721939 -0.053832 -1.680147
v 0.024020 -0.053832 -1.828528
v -0.333170 -0.053832 -1.798079
v -0.677556 -0.053832 -1.698532
v -0.995904 -0.053832 -1.533710
v -1.275980 -0.053832 -1.309949
v -1.507020 -0.053832 -1.035848
v -1.680147 -0.053832 -0.721939
v -1.788707 -0.053832 -0.380287
v -1.828528 -0.053832 -0.024021
v -1.798079 -0.053832 0.333169
v -1.698532 -0.053832 0.677555
v -1.533710 -0.053832 0.995904
v -1.309949 -0.053832 1.275980
v -1.035847 -0.053832 1.507021
v -0.721939 -0.053832 1.680147
v -0.380286 -0.053832 1.788708
v -0.024019 -0.053832 1.828527
v 0.333171 -0.053832 1.798079
v 0.677557 -0.053832 1.698531
v 0.995905 -0.053832 1.533710
v 1.275981 -0.053832 1.309948
v 1.507021 -0.053832 1.035847
v 1.680148 -0.053832 0.721937
v 1.788708 -0.053832 0.380285
v 1.828528 -0.053832 0.024018
v 1.798079 -0.053832 -0.333172
v 1.698531 -0.053832 -0.677558
v 1.533709 -0.053832 -0.995906
v 1.309947 -0.053832 -1.275982
v 1.035845 -0.053832 -1.507022
v 0.306969 -0.027504 -0.714398
v 0.161698 -0.027504 -0.760558
v 0.010213 -0.027504 -0.777490
v -0.141664 -0.027504 -0.764543
v -0.288097 -0.027504 -0.722215
v -0.423458 -0.027504 -0.652133
v -0.542546 -0.027504 -0.556990
v -0.640785 -0.027504 -0.440442
v -0.714398 -0.027504 -0.306968
v -0.760558 -0.027504 -0.161698
v -0.777490 -0.027504 -0.010213
v -0.764543 -0.027504 0.141664
v -0.722215 -0.027504 0.288096
v -0.652133 -0.027504 0.423458
v -0.556990 -0.027504 0.542546
v -0.440442 -0.027504 0.640784
v -0.306968 -0.027504 0.714398
v -0.161698 -0.027504 0.760558
v -0.010213 -0.027504 0.777490
v 0.141664 -0.027504 0.764543
v 0.288097 -0.027504 0.722216
v 0.423458 -0.027504 0.652133
v 0.542546 -0.027504 0.556990
v 0.640785 -0.027504 0.440442
v 0.714399 -0.027504 0.306968
v 0.760558 -0.027504 0.161697
v 0.777489 -0.027504 0.010212
v 0.764543 -0.027504 -0.141665
v 0.722215 -0.027504 -0.288097
v 0.652133 -0.027504 -0.423459
v 0.556989 -0.027504 -0.542547
v 0.440441 -0.027504 -0.640786
v 0.375750 -0.027504 -1.767367
v 0.713326 -0.027504 -1.660102
v 0.023733 -0.027504 -1.806713
v -0.329195 -0.027504 -1.776628
v -0.669472 -0.027504 -1.678267
v -0.984022 -0.027504 -1.515412
v -1.260756 -0.027504 -1.294321
v -1.489041 -0.027504 -1.023489
v -1.660102 -0.027504 -0.713326
v -1.767367 -0.027504 -0.375750
v -1.806712 -0.027504 -0.023734
v -1.776627 -0.027504 0.329194
v -1.678267 -0.027504 0.669472
v -1.515412 -0.027504 0.984022
v -1.294321 -0.027504 1.260756
v -1.023489 -0.027504 1.489041
v -0.713325 -0.027504 1.660103
v -0.375749 -0.027504 1.767366
v -0.023733 -0.027504 1.806712
v 0.329196 -0.027504 1.776627
v 0.669473 -0.027504 1.678267
v 0.984023 -0.027504 1.515411
v 1.260758 -0.027504 1.294320
v 1.489042 -0.027504 1.023488
v 1.660103 -0.027504 0.713325
v 1.767367 -0.027504 0.375748
v 1.806713 -0.027504 0.023732
v 1.776627 -0.027504 -0.329197
v 1.678266 -0.027504 -0.669474
v 1.515411 -0.027504 -0.984024
v 1.294319 -0.027504 -1.260758
v 1.023487 -0.027504 -1.489042
v 0.292652 0.002319 -0.681078
v 0.154156 0.002319 -0.725085
v 0.009737 0.002319 -0.741227
v -0.135056 0.002319 -0.728884
v -0.274660 0.002319 -0.688531
v -0.403708 0.002319 -0.621717
v -0.517241 0.002319 -0.531012
v -0.610898 0.002319 -0.419899
v -0.681078 0.002319 -0.292651
v -0.725085 0.002319 -0.154156
v -0.741227 0.002319 -0.009737
v -0.728884 0.002319 0.135056
v -0.688531 0.002319 0.274659
v -0.621717 0.002319 0.403708
v -0.531012 0.002319 0.517241
v -0.419900 0.002319 0.610898
v -0.292651 0.002319 0.681078
v -0.154156 0.002319 0.725085
v -0.009737 0.002319 0.741227
v 0.135057 0.002319 0.728884
v 0.274660 0.002319 0.688531
v 0.403708 0.002319 0.621717
v 0.517242 0.002319 0.531012
v 0.610898 0.002319 0.419899
v 0.681078 0.002319 0.292650
v 0.725085 0.002319 0.154155
v 0.741227 0.002319 0.009736
v 0.728884 0.002319 -0.135057
v 0.688530 0.002319 -0.274661
v 0.621717 0.002319 -0.403708
v 0.531011 0.002319 -0.517242
v 0.419898 0.002319 -0.610899
v 0.161698 0.002319 -0.760558
v 0.306969 0.002319 -0.714398
v 0.010213 0.002319 -0.777490
v -0.141664 0.002319 -0.764543
v -0.288097 0.002319 -0.722215
v -0.423458 0.002319 -0.652133
v -0.542546 0.002319 -0.556990
v -0.640785 0.002319 -0.440442
v -0.714398 0.002319 -0.306968
v -0.760558 0.002319 -0.161698
v -0.777490 0.002319 -0.010213
v -0.764543 0.002319 0.141664
v -0.722215 0.002319 0.288096
v -0.652133 0.002319 0.423458
v -0.556990 0.002319 0.542546
v -0.440442 0.002319 0.640784
v -0.306968 0.002319 0.714398
v -0.161698 0.002319 0.760558
v -0.010213 0.002319 0.777490
v 0.141664 0.002319 0.764543
v 0.288097 0.002319 0.722216
v 0.423458 0.002319 0.652133
v 0.542546 0.002319 0.556990
v 0.640785 0.002319 0.440442
v 0.714399 0.002319 0.306968
v 0.760558 0.002319 0.161697
v 0.777489 0.002319 0.010212
v 0.764543 0.002319 -0.141665
v 0.722215 0.002319 -0.288097
v 0.652133 0.002319 -0.423459
v 0.556989 0.002319 -0.542547
v 0.440441 0.002319 -0.640786
v 0.280486 0.030989 -0.652766
v 0.147748 0.030989 -0.694943
v 0.009332 0.030989 -0.710414
v -0.129442 0.030989 -0.698585
v -0.263242 0.030989 -0.659909
v -0.386926 0.030989 -0.595873
v -0.495740 0.030989 -0.508938
v -0.585503 0.030989 -0.402444
v -0.652766 0.030989 -0.280486
v -0.694943 0.030989 -0.147748
v -0.710414 0.030989 -0.009332
v -0.698585 0.030989 0.129442
v -0.659909 0.030989 0.263242
v -0.595873 0.030989 0.386926
v -0.508938 0.030989 0.495740
v -0.402445 0.030989 0.585504
v -0.280486 0.030989 0.652766
v -0.147748 0.030989 0.694943
v -0.009332 0.030989 0.710415
v 0.129443 0.030989 0.698585
v 0.263242 0.030989 0.659908
v 0.386926 0.030989 0.595873
v 0.495740 0.030989 0.508938
v 0.585504 0.030989 0.402444
v 0.652766 0.030989 0.280485
v 0.694943 0.030989 0.147747
v 0.710414 0.030989 0.009331
v 0.698584 0.030989 -0.129443
v 0.659908 0.030989 -0.263243
v 0.595872 0.030989 -0.386927
v 0.508937 0.030989 -0.495740
v 0.402443 0.030989 -0.585504
v 0.154156 0.030989 -0.725085
v 0.292652 0.030989 -0.681078
v 0.009737 0.030989 -0.741227
v -0.135056 0.030989 -0.728884
v -0.274660 0.030989 -0.688531
v -0.403708 0.030989 -0.621717
v -0.517241 0.030989 -0.531012
v -0.610898 0.030989 -0.419899
v -0.681078 0.030989 -0.292651
v -0.725085 0.030989 -0.154156
v -0.741227 0.030989 -0.009737
v -0.728884 0.030989 0.135056
v -0.688531 0.030989 0.274659
v -0.621717 0.030989 0.403708
v -0.531012 0.030989 0.517241
v -0.419900 0.030989 0.610898
v -0.292651 0.030989 0.681078
v -0.154156 0.030989 0.725085
v -0.009737 0.030989 0.741227
v 0.135057 0.030989 0.728884
v 0.274660 0.030989 0.688531
v 0.403708 0.030989 0.621717
v 0.517242 0.030989 0.531012
v 0.610898 0.030989 0.419899
v 0.681078 0.030989 0.292650
v 0.725085 0.030989 0.154155
v 0.741227 0.030989 0.009736
v 0.728884 0.030989 -0.135057
v 0.688530 0.030989 -0.274661
v 0.621717 0.030989 -0.403708
v 0.531011 0.030989 -0.517242
v 0.419898 0.030989 -0.610899
v 0.161156 0.053911 -0.375052
v 0.084890 0.053911 -0.399285
v 0.005362 0.053911 -0.408175
v -0.074372 0.053911 -0.401378
v -0.151248 0.053911 -0.379156
v -0.222311 0.053911 -0.342363
v -0.284831 0.053911 -0.292415
v -0.336406 0.053911 -0.231228
v -0.375052 0.053911 -0.161155
v -0.399285 0.053911 -0.084890
v -0.408174 0.053911 -0.005362
v -0.401377 0.053911 0.074372
v -0.379156 0.053911 0.151248
v -0.342364 0.053911 0.222311
v -0.292414 0.053911 0.284831
v -0.231228 0.053911 0.336406
v -0.161155 0.053911 0.375052
v -0.084890 0.053911 0.399285
v -0.005362 0.053911 0.408175
v 0.074372 0.053911 0.401378
v 0.151248 0.053911 0.379156
v 0.222311 0.053911 0.342363
v 0.284831 0.053911 0.292414
v 0.336406 0.053911 0.231228
v 0.375052 0.053911 0.161155
v 0.399285 0.053911 0.084889
v 0.408174 0.053911 0.005361
v 0.401377 0.053911 -0.074373
v 0.379156 0.053911 -0.151248
v 0.342363 0.053911 -0.222312
v 0.292414 0.053911 -0.284832
v 0.231227 0.053911 -0.336406
v 0.147748 0.053911 -0.694943
v 0.280486 0.053911 -0.652766
v 0.009332 0.053911 -0.710414
v -0.129442 0.053911 -0.698585
v -0.263242 0.053911 -0.659909
v -0.386926 0.053911 -0.595873
v -0.495740 0.053911 -0.508938
v -0.585503 0.053911 -0.402444
v -0.652766 0.053911 -0.280486
v -0.694943 0.053911 -0.147748
v -0.710414 0.053911 -0.009332
v -0.698585 0.053911 0.129442
v -0.659909 0.053911 0.263242
v -0.595873 0.053911 0.386926
v -0.508938 0.053911 0.495740
v -0.402445 0.053911 0.585504
v -0.280486 0.053911 0.652766
v -0.147748 0.053911 0.694943
v -0.009332 0.053911 0.710415
v 0.129443 0.053911 0.698585
v 0.263242 0.053911 0.659908
v 0.386926 0.053911 0.595873
v 0.495740 0.053911 0.508938
v 0.585504 0.053911 0.402444
v 0.652766 0.053911 0.280485
v 0.694943 0.053911 0.147747
v 0.710414 0.053911 0.009331
v 0.698584 0.053911 -0.129443
v 0.659908 0.053911 -0.263243
v 0.595872 0.053911 -0.386927
v 0.508937 0.053911 -0.495740
v 0.402443 0.053911 -0.585504
v 0.161156 0.074659 -0.375052
v 0.084890 0.074659 -0.399285
v 0.005362 0.074659 -0.408175
v -0.074372 0.074659 -0.401378
v -0.151248 0.074659 -0.379156
v -0.222311 0.074659 -0.342363
v -0.284831 0.074659 -0.292415
v -0.336406 0.074659 -0.231228
v -0.375052 0.074659 -0.161155
v -0.399285 0.074659 -0.084890
v -0.408174 0.074659 -0.005362
v -0.401377 0.074659 0.074372
v -0.379156 0.074659 0.151248
v -0.342364 0.074659 0.222311
v -0.292414 0.074659 0.284831
v -0.231228 0.074659 0.336406
v -0.161155 0.074659 0.375052
v -0.084890 0.074659 0.399285
v -0.005362 0.074659 0.408175
v 0.074372 0.074659 0.401378
v 0.151248 0.074659 0.379156
v 0.222311 0.074659 0.342363
v 0.284831 0.074659 0.292414
v 0.336406 0.074659 0.231228
v 0.375052 0.074659 0.161155
v 0.399285 0.074659 0.084889
v 0.408174 0.074659 0.005361
v 0.401377 0.074659 -0.074373
v 0.379156 0.074659 -0.151248
v 0.342363 0.074659 -0.222312
v 0.292414 0.074659 -0.284832
v 0.231227 0.074659 -0.336406
v -0.000000 0.074659 -0.000000
vt 0.809239 0.123231
vt 0.876747 0.190790
vt 0.871277 0.195292
vt 0.804755 0.128723
vt 0.942900 0.263180
vt 0.980520 0.354150
vt 0.971874 0.356787
vt 0.934934 0.267451
vt 0.000100 0.450642
vt 0.019353 0.354017
vt 0.028013 0.356632
vt 0.009105 0.451512
vt 0.999677 0.450672
vt 0.990685 0.451573
vt 0.057120 0.263098
vt 0.065094 0.267351
vt 0.999669 0.549081
vt 0.990672 0.548213
vt 0.111852 0.181365
vt 0.118840 0.187085
vt 0.980482 0.645606
vt 0.971828 0.643001
vt 0.181404 0.111877
vt 0.187146 0.118849
vt 0.942867 0.736522
vt 0.934884 0.732281
vt 0.263204 0.057199
vt 0.267483 0.065163
vt 0.549027 0.999900
vt 0.450417 0.999846
vt 0.451295 0.990835
vt 0.548124 0.990890
vt 0.888220 0.818430
vt 0.881214 0.812711
vt 0.354177 0.019464
vt 0.356828 0.028111
vt 0.353789 0.980500
vt 0.356410 0.971842
vt 0.818618 0.888117
vt 0.812862 0.881139
vt 0.450745 0.000100
vt 0.451656 0.009095
vt 0.262887 0.942683
vt 0.267143 0.934710
vt 0.736752 0.942886
vt 0.732467 0.934917
vt 0.549143 0.000100
vt 0.548273 0.009098
vt 0.181169 0.887925
vt 0.186892 0.880938
vt 0.645726 0.980649
vt 0.643078 0.971992
vt 0.645714 0.019336
vt 0.643104 0.027995
vt 0.111695 0.818367
vt 0.118667 0.812626
vt 0.736689 0.057024
vt 0.732444 0.065014
vt 0.057035 0.736577
vt 0.064997 0.732301
vt 0.818701 0.111676
vt 0.812979 0.118682
vt 0.019349 0.645646
vt 0.027993 0.643003
vt 0.888283 0.181322
vt 0.881303 0.187067
vt 0.000124 0.549128
vt 0.009120 0.548222
vt 0.451886 0.984972
vt 0.547556 0.985022
vt 0.358135 0.966211
vt 0.269931 0.929529
vt 0.190633 0.876402
vt 0.123220 0.808904
vt 0.070189 0.729535
vt 0.033626 0.641302
vt 0.014978 0.547653
vt 0.014964 0.452099
vt 0.033645 0.358353
vt 0.070276 0.270137
vt 0.123377 0.190825
vt 0.190869 0.123401
vt 0.270251 0.070357
vt 0.358535 0.033747
vt 0.452229 0.014952
vt 0.547686 0.014954
vt 0.641385 0.033626
vt 0.729662 0.070205
vt 0.929738 0.270214
vt 0.966240 0.358484
vt 0.984829 0.452139
vt 0.984818 0.547628
vt 0.966199 0.641286
vt 0.929697 0.729501
vt 0.876666 0.808971
vt 0.809130 0.876583
vt 0.729696 0.929719
vt 0.641374 0.966350
vt 0.707482 0.479612
vt 0.707465 0.520561
vt 0.699627 0.519780
vt 0.699639 0.480388
vt 0.022029 0.546945
vt 0.040400 0.639231
vt 0.923495 0.273560
vt 0.022021 0.452781
vt 0.959464 0.360550
vt 0.040431 0.360401
vt 0.977781 0.452844
vt 0.076526 0.273469
vt 0.977768 0.546947
vt 0.128854 0.195309
vt 0.959416 0.639245
vt 0.195368 0.128867
vt 0.923442 0.726176
vt 0.273603 0.076599
vt 0.452574 0.977911
vt 0.546849 0.977961
vt 0.871177 0.804488
vt 0.360613 0.040527
vt 0.360189 0.959426
vt 0.804620 0.871115
vt 0.452944 0.022002
vt 0.273266 0.923280
vt 0.726339 0.923473
vt 0.547003 0.022005
vt 0.195118 0.870926
vt 0.639300 0.959566
vt 0.639339 0.040411
vt 0.128685 0.804406
vt 0.726332 0.076468
vt 0.076429 0.726185
vt 0.479028 0.707594
vt 0.520121 0.707715
vt 0.438869 0.699459
vt 0.401173 0.683651
vt 0.367467 0.660836
vt 0.338568 0.632158
vt 0.315716 0.598159
vt 0.300345 0.560280
vt 0.292187 0.520301
vt 0.292027 0.479242
vt 0.300259 0.438996
vt 0.316087 0.401281
vt 0.338894 0.367561
vt 0.367559 0.338627
vt 0.401568 0.315688
vt 0.439567 0.300143
vt 0.479695 0.292412
vt 0.520580 0.292171
vt 0.560770 0.300343
vt 0.598389 0.316163
vt 0.632467 0.338755
vt 0.661171 0.367838
vt 0.684047 0.401712
vt 0.699509 0.439581
vt 0.699284 0.560583
vt 0.683870 0.598379
vt 0.661078 0.632430
vt 0.632064 0.661232
vt 0.598168 0.683931
vt 0.560385 0.699638
vt 0.409332 0.668524
vt 0.378252 0.647721
vt 0.382876 0.642105
vt 0.412776 0.662114
vt 0.344984 0.372557
vt 0.323009 0.405011
vt 0.691725 0.558300
vt 0.372604 0.344714
vt 0.676900 0.594682
vt 0.405315 0.322658
vt 0.479815 0.699729
vt 0.519339 0.699844
vt 0.654984 0.627426
vt 0.441846 0.307697
vt 0.441177 0.691921
vt 0.627065 0.655143
vt 0.480468 0.300272
vt 0.404902 0.676733
vt 0.594442 0.676989
vt 0.519822 0.300033
vt 0.372464 0.654751
vt 0.558073 0.692081
vt 0.558468 0.307882
vt 0.344654 0.627124
vt 0.594667 0.323131
vt 0.322671 0.594436
vt 0.627472 0.344840
vt 0.307902 0.557979
vt 0.655063 0.372856
vt 0.300058 0.519483
vt 0.677099 0.405440
vt 0.299906 0.480006
vt 0.691967 0.441865
vt 0.307809 0.441309
vt 0.480760 0.690390
vt 0.518430 0.690506
vt 0.443928 0.682971
vt 0.351884 0.621181
vt 0.331126 0.589931
vt 0.316655 0.555324
vt 0.309389 0.518543
vt 0.309475 0.480958
vt 0.316782 0.444069
vt 0.331225 0.409442
vt 0.352021 0.378343
vt 0.378560 0.351947
vt 0.409846 0.331138
vt 0.444544 0.316674
vt 0.481350 0.309375
vt 0.518878 0.309575
vt 0.555725 0.316834
vt 0.590347 0.331189
vt 0.621395 0.352217
vt 0.647978 0.378657
vt 0.668654 0.409948
vt 0.682986 0.444564
vt 0.690325 0.481284
vt 0.690334 0.518844
vt 0.682976 0.555649
vt 0.668441 0.590164
vt 0.647759 0.621475
vt 0.621134 0.647894
vt 0.590040 0.668736
vt 0.555357 0.683099
vt 0.324335 0.482436
vt 0.331098 0.448442
vt 0.336498 0.450079
vt 0.329952 0.482986
vt 0.553210 0.676081
vt 0.586582 0.662293
vt 0.553605 0.323815
vt 0.518165 0.316810
vt 0.357495 0.616582
vt 0.517696 0.683221
vt 0.586901 0.337618
vt 0.337532 0.586510
vt 0.616787 0.357817
vt 0.323641 0.553203
vt 0.642330 0.383283
vt 0.316621 0.517824
vt 0.662258 0.413369
vt 0.316720 0.481672
vt 0.675982 0.446689
vt 0.323771 0.446200
vt 0.683041 0.482005
vt 0.337641 0.412885
vt 0.683069 0.518137
vt 0.357641 0.382967
vt 0.675996 0.553539
vt 0.383168 0.357562
vt 0.662007 0.586730
vt 0.413283 0.337556
vt 0.481476 0.683112
vt 0.642110 0.616854
vt 0.446664 0.323662
vt 0.446057 0.675993
vt 0.616484 0.642246
vt 0.482053 0.316640
vt 0.482243 0.675474
vt 0.516929 0.675390
vt 0.448300 0.668677
vt 0.416396 0.655392
vt 0.387737 0.636212
vt 0.363412 0.611746
vt 0.344273 0.582920
vt 0.330978 0.550980
vt 0.324235 0.517075
vt 0.344368 0.416504
vt 0.363540 0.387828
vt 0.388012 0.363484
vt 0.416887 0.344312
vt 0.448880 0.330989
vt 0.482783 0.324269
vt 0.517402 0.324419
vt 0.551376 0.331131
vt 0.583275 0.344363
vt 0.611931 0.363702
vt 0.636396 0.388134
vt 0.655531 0.416958
vt 0.668844 0.448850
vt 0.675418 0.482740
vt 0.675259 0.517357
vt 0.668667 0.551315
vt 0.655437 0.583210
vt 0.636059 0.611882
vt 0.611745 0.636476
vt 0.582980 0.655546
vt 0.550980 0.668723
vt 0.471338 0.405469
vt 0.490308 0.401706
vt 0.490794 0.406606
vt 0.472762 0.410172
vt 0.669835 0.483275
vt 0.663460 0.450483
vt 0.349332 0.419157
vt 0.669667 0.516808
vt 0.367890 0.391398
vt 0.663268 0.549691
vt 0.391588 0.367845
vt 0.650477 0.580553
vt 0.419561 0.349295
vt 0.482789 0.669850
vt 0.516367 0.669779
vt 0.631716 0.608324
vt 0.450534 0.336385
vt 0.449939 0.663285
vt 0.608168 0.632130
vt 0.483332 0.329884
vt 0.419050 0.650432
vt 0.580344 0.650600
vt 0.516850 0.330042
vt 0.391307 0.631864
vt 0.549348 0.663329
vt 0.549752 0.336533
vt 0.367768 0.608176
vt 0.580618 0.349334
vt 0.349241 0.580262
vt 0.608356 0.368051
vt 0.336381 0.549326
vt 0.632035 0.391715
vt 0.329853 0.516509
vt 0.650569 0.419616
vt 0.490061 0.598083
vt 0.509406 0.598097
vt 0.471079 0.594293
vt 0.453208 0.586871
vt 0.437137 0.576109
vt 0.423478 0.562424
vt 0.412750 0.546336
vt 0.405370 0.528458
vt 0.401672 0.509471
vt 0.401687 0.490136
vt 0.405476 0.471156
vt 0.412895 0.453282
vt 0.423657 0.437203
vt 0.437345 0.423536
vt 0.453440 0.412807
vt 0.509654 0.401726
vt 0.528608 0.405568
vt 0.546467 0.412981
vt 0.562540 0.423740
vt 0.576207 0.437431
vt 0.586935 0.453523
vt 0.594316 0.471403
vt 0.598063 0.490371
vt 0.598043 0.509706
vt 0.594251 0.528676
vt 0.586832 0.546541
vt 0.576074 0.562612
vt 0.562379 0.576284
vt 0.546284 0.587016
vt 0.528403 0.594396
vt 0.509170 0.406623
vt 0.499850 0.499928
vt 0.455525 0.582527
vt 0.472504 0.589578
vt 0.543960 0.582675
vt 0.559252 0.572480
vt 0.440256 0.572302
vt 0.526976 0.589685
vt 0.527180 0.410270
vt 0.427279 0.559298
vt 0.508929 0.593204
vt 0.544150 0.417324
vt 0.417089 0.544012
vt 0.559421 0.427550
vt 0.410079 0.527032
vt 0.572403 0.440557
vt 0.406562 0.508994
vt 0.582595 0.455848
vt 0.406588 0.490613
vt 0.589606 0.472834
vt 0.410191 0.472581
vt 0.593166 0.490857
vt 0.417242 0.455599
vt 0.593143 0.509229
vt 0.427466 0.440323
vt 0.589538 0.527251
vt 0.440472 0.427340
vt 0.582488 0.544223
vt 0.455759 0.417147
vt 0.490539 0.593181
vt 0.572263 0.559494
vn 0.2533 0.7298 0.6349
vn 0.3723 0.7298 0.5733
vn 0.3964 0.6857 0.6105
vn 0.2697 0.6857 0.6761
vn 0.6977 0.0000 0.7163
vn 0.8241 0.0000 0.5664
vn 0.5998 0.6857 0.4123
vn 0.5079 0.6857 0.5214
vn -0.9781 0.0000 -0.2080
vn -0.9999 0.0000 -0.0131
vn -0.7278 0.6857 -0.0096
vn -0.7120 0.6857 -0.1513
vn 0.9188 0.0000 0.3948
vn 0.6688 0.6857 0.2873
vn -0.9832 0.0000 0.1822
vn -0.7157 0.6857 0.1326
vn 0.9781 0.0000 0.2080
vn 0.7120 0.6857 0.1513
vn -0.9288 0.0000 0.3705
vn -0.6761 0.6857 0.2697
vn 0.9999 0.0000 0.0131
vn 0.7278 0.6857 0.0096
vn -0.8387 0.0000 0.5446
vn -0.6105 0.6857 0.3964
vn 0.9832 0.0000 -0.1822
vn 0.7157 0.6857 -0.1326
vn -0.7163 0.0000 0.6977
vn -0.5214 0.6857 0.5079
vn 0.3948 0.0000 -0.9188
vn 0.2080 0.0000 -0.9781
vn 0.1513 0.6857 -0.7120
vn 0.2873 0.6857 -0.6688
vn 0.9288 0.0000 -0.3705
vn 0.6761 0.6857 -0.2697
vn -0.5664 0.0000 0.8241
vn -0.4123 0.6857 0.5998
vn 0.0131 0.0000 -0.9999
vn 0.0096 0.6857 -0.7278
vn 0.8387 0.0000 -0.5446
vn 0.6105 0.6857 -0.3964
vn -0.3948 0.0000 0.9188
vn -0.2873 0.6857 0.6688
vn -0.1822 0.0000 -0.9832
vn -0.1326 0.6857 -0.7157
vn 0.7163 0.0000 -0.6977
vn 0.5214 0.6857 -0.5079
vn -0.2080 0.0000 0.9781
vn -0.1513 0.6857 0.7120
vn -0.3705 0.0000 -0.9288
vn -0.2697 0.6857 -0.6761
vn 0.5664 0.0000 -0.8241
vn 0.4123 0.6857 -0.5998
vn -0.0131 0.0000 0.9999
vn -0.0096 0.6857 0.7278
vn -0.5446 0.0000 -0.8387
vn -0.3964 0.6857 -0.6105
vn 0.1822 0.0000 0.9832
vn 0.1326 0.6857 0.7157
vn -0.6977 0.0000 -0.7163
vn -0.5079 0.6857 -0.5214
vn 0.3705 0.0000 0.9288
vn -0.8241 0.0000 -0.5664
vn -0.5998 0.6857 -0.4123
vn 0.5446 0.0000 0.8387
vn -0.9188 0.0000 -0.3948
vn -0.6688 0.6857 -0.2873
vn 0.1422 0.7298 -0.6687
vn 0.2699 0.7298 -0.6281
vn 0.0090 0.7298 -0.6835
vn -0.1245 0.7298 -0.6721
vn -0.2533 0.7298 -0.6349
vn -0.3723 0.7298 -0.5733
vn -0.4770 0.7298 -0.4897
vn -0.5633 0.7298 -0.3872
vn -0.6281 0.7298 -0.2699
vn -0.6687 0.7298 -0.1422
vn -0.6835 0.7298 -0.0090
vn -0.6721 0.7298 0.1245
vn -0.6349 0.7298 0.2533
vn -0.5733 0.7298 0.3723
vn -0.4897 0.7298 0.4770
vn -0.3872 0.7298 0.5633
vn -0.2699 0.7298 0.6281
vn -0.1422 0.7298 0.6687
vn -0.0090 0.7298 0.6835
vn 0.1245 0.7298 0.6721
vn 0.4770 0.7298 0.4897
vn 0.5633 0.7298 0.3872
vn 0.6281 0.7298 0.2699
vn 0.6687 0.7298 0.1422
vn 0.6835 0.7298 0.0090
vn 0.6721 0.7298 -0.1245
vn 0.6349 0.7298 -0.2533
vn 0.5733 0.7298 -0.3723
vn 0.4897 0.7298 -0.4770
vn 0.3872 0.7298 -0.5633
vn 0.5633 0.7299 0.3872
vn 0.0000 1.0000 0.0000
usemtl marble.001
s 1
f 53/1/1 54/2/2 150/3/3 149/4/4
f 23/5/5 24/6/6 88/7/7 87/8/8
f 10/9/9 11/10/10 75/11/11 74/12/12
f 24/6/6 25/13/13 89/14/14 88/7/7
f 11/10/10 12/15/15 76/16/16 75/11/11
f 25/13/13 26/17/17 90/18/18 89/14/14
f 12/15/15 13/19/19 77/20/20 76/16/16
f 26/17/17 27/21/21 91/22/22 90/18/18
f 13/19/19 14/23/23 78/24/24 77/20/20
f 27/21/21 28/25/25 92/26/26 91/22/22
f 14/23/23 15/27/27 79/28/28 78/24/24
f 1/29/29 2/30/30 65/31/31 66/32/32
f 28/25/25 29/33/33 93/34/34 92/26/26
f 15/27/27 16/35/35 80/36/36 79/28/28
f 2/30/30 3/37/37 67/38/38 65/31/31
f 29/33/33 30/39/39 94/40/40 93/34/34
f 16/35/35 17/41/41 81/42/42 80/36/36
f 3/37/37 4/43/43 68/44/44 67/38/38
f 30/39/39 31/45/45 95/46/46 94/40/40
f 17/41/41 18/47/47 82/48/48 81/42/42
f 4/43/43 5/49/49 69/50/50 68/44/44
f 31/45/45 32/51/51 96/52/52 95/46/46
f 18/47/47 19/53/53 83/54/54 82/48/48
f 5/49/49 6/55/55 70/56/56 69/50/50
f 32/51/51 1/29/29 66/32/32 96/52/52
f 19/53/53 20/57/57 84/58/58 83/54/54
f 6/55/55 7/59/59 71/60/60 70/56/56
f 20/57/57 21/61/61 85/62/4 84/58/58
f 7/59/59 8/63/62 72/64/63 71/60/60
f 21/61/61 22/65/64 86/66/3 85/62/4
f 8/63/62 9/67/65 73/68/66 72/64/63
f 22/65/64 23/5/5 87/8/8 86/66/3
f 9/67/65 10/9/9 74/12/12 73/68/66
f 34/69/67 33/70/68 66/32/32 65/31/31
f 35/71/69 34/69/67 65/31/31 67/38/38
f 36/72/70 35/71/69 67/38/38 68/44/44
f 37/73/71 36/72/70 68/44/44 69/50/50
f 38/74/72 37/73/71 69/50/50 70/56/56
f 39/75/73 38/74/72 70/56/56 71/60/60
f 40/76/74 39/75/73 71/60/60 72/64/63
f 41/77/75 40/76/74 72/64/63 73/68/66
f 42/78/76 41/77/75 73/68/66 74/12/12
f 43/79/77 42/78/76 74/12/12 75/11/11
f 44/80/78 43/79/77 75/11/11 76/16/16
f 45/81/79 44/80/78 76/16/16 77/20/20
f 46/82/80 45/81/79 77/20/20 78/24/24
f 47/83/81 46/82/80 78/24/24 79/28/28
f 48/84/82 47/83/81 79/28/28 80/36/36
f 49/85/83 48/84/82 80/36/36 81/42/42
f 50/86/84 49/85/83 81/42/42 82/48/48
f 51/87/85 50/86/84 82/48/48 83/54/54
f 52/88/86 51/87/85 83/54/54 84/58/58
f 53/1/1 52/88/86 84/58/58 85/62/4
f 54/2/2 53/1/1 85/62/4 86/66/3
f 55/89/87 54/2/2 86/66/3 87/8/8
f 56/90/88 55/89/87 87/8/8 88/7/7
f 57/91/89 56/90/88 88/7/7 89/14/14
f 58/92/90 57/91/89 89/14/14 90/18/18
f 59/93/91 58/92/90 90/18/18 91/22/22
f 60/94/92 59/93/91 91/22/22 92/26/26
f 61/95/93 60/94/92 92/26/26 93/34/34
f 62/96/94 61/95/93 93/34/34 94/40/40
f 63/97/95 62/96/94 94/40/40 95/46/46
f 64/98/96 63/97/95 95/46/46 96/52/52
f 33/70/68 64/98/96 96/52/52 66/32/32
f 121/99/89 122/100/90 218/101/18 217/102/14
f 40/76/74 41/77/75 137/103/66 136/104/63
f 54/2/2 55/89/87 151/105/8 150/3/3
f 41/77/75 42/78/76 138/106/12 137/103/66
f 55/89/87 56/90/88 152/107/7 151/105/8
f 42/78/76 43/79/77 139/108/11 138/106/12
f 56/90/88 57/91/89 153/109/14 152/107/7
f 43/79/77 44/80/78 140/110/16 139/108/11
f 57/91/89 58/92/90 154/111/18 153/109/14
f 44/80/78 45/81/79 141/112/20 140/110/16
f 58/92/90 59/93/91 155/113/22 154/111/18
f 45/81/79 46/82/80 142/114/24 141/112/20
f 59/93/91 60/94/92 156/115/26 155/113/22
f 46/82/80 47/83/81 143/116/28 142/114/24
f 33/70/68 34/69/67 129/117/31 130/118/32
f 60/94/92 61/95/93 157/119/34 156/115/26
f 47/83/81 48/84/82 144/120/36 143/116/28
f 34/69/67 35/71/69 131/121/38 129/117/31
f 61/95/93 62/96/94 158/122/40 157/119/34
f 48/84/82 49/85/83 145/123/42 144/120/36
f 35/71/69 36/72/70 132/124/44 131/121/38
f 62/96/94 63/97/95 159/125/46 158/122/40
f 49/85/83 50/86/84 146/126/48 145/123/42
f 36/72/70 37/73/71 133/127/50 132/124/44
f 63/97/95 64/98/96 160/128/52 159/125/46
f 50/86/84 51/87/85 147/129/54 146/126/48
f 37/73/71 38/74/72 134/130/56 133/127/50
f 64/98/96 33/70/68 130/118/32 160/128/52
f 51/87/85 52/88/86 148/131/58 147/129/54
f 38/74/72 39/75/73 135/132/60 134/130/56
f 52/88/86 53/1/1 149/4/4 148/131/58
f 39/75/73 40/76/74 136/104/63 135/132/60
f 98/133/67 97/134/68 130/118/32 129/117/31
f 99/135/69 98/133/67 129/117/31 131/121/38
f 100/136/70 99/135/69 131/121/38 132/124/44
f 101/137/71 100/136/70 132/124/44 133/127/50
f 102/138/72 101/137/71 133/127/50 134/130/56
f 103/139/73 102/138/72 134/130/56 135/132/60
f 104/140/74 103/139/73 135/132/60 136/104/63
f 105/141/75 104/140/74 136/104/63 137/103/66
f 106/142/76 105/141/75 137/103/66 138/106/12
f 107/143/77 106/142/76 138/106/12 139/108/11
f 108/144/78 107/143/77 139/108/11 140/110/16
f 109/145/79 108/144/78 140/110/16 141/112/20
f 110/146/80 109/145/79 141/112/20 142/114/24
f 111/147/81 110/146/80 142/114/24 143/116/28
f 112/148/82 111/147/81 143/116/28 144/120/36
f 113/149/83 112/148/82 144/120/36 145/123/42
f 114/150/84 113/149/83 145/123/42 146/126/48
f 115/151/85 114/150/84 146/126/48 147/129/54
f 116/152/86 115/151/85 147/129/54 148/131/58
f 117/153/1 116/152/86 148/131/58 149/4/4
f 118/154/2 117/153/1 149/4/4 150/3/3
f 119/155/87 118/154/2 150/3/3 151/105/8
f 120/156/88 119/155/87 151/105/8 152/107/7
f 121/99/89 120/156/88 152/107/7 153/109/14
f 122/100/90 121/99/89 153/109/14 154/111/18
f 123/157/91 122/100/90 154/111/18 155/113/22
f 124/158/92 123/157/91 155/113/22 156/115/26
f 125/159/93 124/158/92 156/115/26 157/119/34
f 126/160/94 125/159/93 157/119/34 158/122/40
f 127/161/95 126/160/94 158/122/40 159/125/46
f 128/162/96 127/161/95 159/125/46 160/128/52
f 97/134/68 128/162/96 160/128/52 130/118/32
f 164/163/70 165/164/71 261/165/50 260/166/44
f 108/144/78 109/145/79 205/167/20 204/168/16
f 122/100/90 123/157/91 219/169/22 218/101/18
f 109/145/79 110/146/80 206/170/24 205/167/20
f 123/157/91 124/158/92 220/171/26 219/169/22
f 110/146/80 111/147/81 207/172/28 206/170/24
f 97/134/68 98/133/67 193/173/31 194/174/32
f 124/158/92 125/159/93 221/175/34 220/171/26
f 111/147/81 112/148/82 208/176/36 207/172/28
f 98/133/67 99/135/69 195/177/38 193/173/31
f 125/159/93 126/160/94 222/178/40 221/175/34
f 112/148/82 113/149/83 209/179/42 208/176/36
f 99/135/69 100/136/70 196/180/44 195/177/38
f 126/160/94 127/161/95 223/181/46 222/178/40
f 113/149/83 114/150/84 210/182/48 209/179/42
f 100/136/70 101/137/71 197/183/50 196/180/44
f 127/161/95 128/162/96 224/184/52 223/181/46
f 114/150/84 115/151/85 211/185/54 210/182/48
f 101/137/71 102/138/72 198/186/56 197/183/50
f 128/162/96 97/134/68 194/174/32 224/184/52
f 115/151/85 116/152/86 212/187/58 211/185/54
f 102/138/72 103/139/73 199/188/60 198/186/56
f 116/152/86 117/153/1 213/189/4 212/187/58
f 103/139/73 104/140/74 200/190/63 199/188/60
f 117/153/1 118/154/2 214/191/3 213/189/4
f 104/140/74 105/141/75 201/192/66 200/190/63
f 118/154/2 119/155/87 215/193/8 214/191/3
f 105/141/75 106/142/76 202/194/12 201/192/66
f 119/155/87 120/156/88 216/195/7 215/193/8
f 106/142/76 107/143/77 203/196/11 202/194/12
f 120/156/88 121/99/89 217/102/14 216/195/7
f 107/143/77 108/144/78 204/168/16 203/196/11
f 162/197/67 161/198/68 194/174/32 193/173/31
f 163/199/69 162/197/67 193/173/31 195/177/38
f 164/163/70 163/199/69 195/177/38 196/180/44
f 165/164/71 164/163/70 196/180/44 197/183/50
f 166/200/72 165/164/71 197/183/50 198/186/56
f 167/201/73 166/200/72 198/186/56 199/188/60
f 168/202/74 167/201/73 199/188/60 200/190/63
f 169/203/75 168/202/74 200/190/63 201/192/66
f 170/204/76 169/203/75 201/192/66 202/194/12
f 171/205/77 170/204/76 202/194/12 203/196/11
f 172/206/78 171/205/77 203/196/11 204/168/16
f 173/207/79 172/206/78 204/168/16 205/167/20
f 174/208/80 173/207/79 205/167/20 206/170/24
f 175/209/81 174/208/80 206/170/24 207/172/28
f 176/210/82 175/209/81 207/172/28 208/176/36
f 177/211/83 176/210/82 208/176/36 209/179/42
f 178/212/84 177/211/83 209/179/42 210/182/48
f 179/213/85 178/212/84 210/182/48 211/185/54
f 180/214/86 179/213/85 211/185/54 212/187/58
f 181/215/1 180/214/86 212/187/58 213/189/4
f 182/216/2 181/215/1 213/189/4 214/191/3
f 183/217/87 182/216/2 214/191/3 215/193/8
f 184/218/88 183/217/87 215/193/8 216/195/7
f 185/219/89 184/218/88 216/195/7 217/102/14
f 186/220/90 185/219/89 217/102/14 218/101/18
f 187/221/91 186/220/90 218/101/18 219/169/22
f 188/222/92 187/221/91 219/169/22 220/171/26
f 189/223/93 188/222/92 220/171/26 221/175/34
f 190/224/94 189/223/93 221/175/34 222/178/40
f 191/225/95 190/224/94 222/178/40 223/181/46
f 192/226/96 191/225/95 223/181/46 224/184/52
f 161/198/68 192/226/96 224/184/52 194/174/32
f 234/227/76 235/228/77 331/229/11 330/230/12
f 191/225/95 192/226/96 288/231/52 287/232/46
f 178/212/84 179/213/85 275/233/54 274/234/48
f 165/164/71 166/200/72 262/235/56 261/165/50
f 192/226/96 161/198/68 258/236/32 288/231/52
f 179/213/85 180/214/86 276/237/58 275/233/54
f 166/200/72 167/201/73 263/238/60 262/235/56
f 180/214/86 181/215/1 277/239/4 276/237/58
f 167/201/73 168/202/74 264/240/63 263/238/60
f 181/215/1 182/216/2 278/241/3 277/239/4
f 168/202/74 169/203/75 265/242/66 264/240/63
f 182/216/2 183/217/87 279/243/8 278/241/3
f 169/203/75 170/204/76 266/244/12 265/242/66
f 183/217/87 184/218/88 280/245/7 279/243/8
f 170/204/76 171/205/77 267/246/11 266/244/12
f 184/218/88 185/219/89 281/247/14 280/245/7
f 171/205/77 172/206/78 268/248/16 267/246/11
f 185/219/89 186/220/90 282/249/18 281/247/14
f 172/206/78 173/207/79 269/250/20 268/248/16
f 186/220/90 187/221/91 283/251/22 282/249/18
f 173/207/79 174/208/80 270/252/24 269/250/20
f 187/221/91 188/222/92 284/253/26 283/251/22
f 174/208/80 175/209/81 271/254/28 270/252/24
f 161/198/68 162/197/67 257/255/31 258/236/32
f 188/222/92 189/223/93 285/256/34 284/253/26
f 175/209/81 176/210/82 272/257/36 271/254/28
f 162/197/67 163/199/69 259/258/38 257/255/31
f 189/223/93 190/224/94 286/259/40 285/256/34
f 176/210/82 177/211/83 273/260/42 272/257/36
f 163/199/69 164/163/70 260/166/44 259/258/38
f 190/224/94 191/225/95 287/232/46 286/259/40
f 177/211/83 178/212/84 274/234/48 273/260/42
f 226/261/67 225/262/68 258/236/32 257/255/31
f 227/263/69 226/261/67 257/255/31 259/258/38
f 228/264/70 227/263/69 259/258/38 260/166/44
f 229/265/71 228/264/70 260/166/44 261/165/50
f 230/266/72 229/265/71 261/165/50 262/235/56
f 231/267/73 230/266/72 262/235/56 263/238/60
f 232/268/74 231/267/73 263/238/60 264/240/63
f 233/269/75 232/268/74 264/240/63 265/242/66
f 234/227/76 233/269/75 265/242/66 266/244/12
f 235/228/77 234/227/76 266/244/12 267/246/11
f 236/270/78 235/228/77 267/246/11 268/248/16
f 237/271/79 236/270/78 268/248/16 269/250/20
f 238/272/80 237/271/79 269/250/20 270/252/24
f 239/273/81 238/272/80 270/252/24 271/254/28
f 240/274/82 239/273/81 271/254/28 272/257/36
f 241/275/83 240/274/82 272/257/36 273/260/42
f 242/276/84 241/275/83 273/260/42 274/234/48
f 243/277/85 242/276/84 274/234/48 275/233/54
f 244/278/86 243/277/85 275/233/54 276/237/58
f 245/279/1 244/278/86 276/237/58 277/239/4
f 246/280/2 245/279/1 277/239/4 278/241/3
f 247/281/87 246/280/2 278/241/3 279/243/8
f 248/282/88 247/281/87 279/243/8 280/245/7
f 249/283/89 248/282/88 280/245/7 281/247/14
f 250/284/90 249/283/89 281/247/14 282/249/18
f 251/285/91 250/284/90 282/249/18 283/251/22
f 252/286/92 251/285/91 283/251/22 284/253/26
f 253/287/93 252/286/92 284/253/26 285/256/34
f 254/288/94 253/287/93 285/256/34 286/259/40
f 255/289/95 254/288/94 286/259/40 287/232/46
f 256/290/96 255/289/95 287/232/46 288/231/52
f 225/262/68 256/290/96 288/231/52 258/236/32
f 304/291/82 305/292/83 369/293/42 368/294/36
f 248/282/88 249/283/89 345/295/14 344/296/7
f 235/228/77 236/270/78 332/297/16 331/229/11
f 249/283/89 250/284/90 346/298/18 345/295/14
f 236/270/78 237/271/79 333/299/20 332/297/16
f 250/284/90 251/285/91 347/300/22 346/298/18
f 237/271/79 238/272/80 334/301/24 333/299/20
f 251/285/91 252/286/92 348/302/26 347/300/22
f 238/272/80 239/273/81 335/303/28 334/301/24
f 225/262/68 226/261/67 321/304/31 322/305/32
f 252/286/92 253/287/93 349/306/34 348/302/26
f 239/273/81 240/274/82 336/307/36 335/303/28
f 226/261/67 227/263/69 323/308/38 321/304/31
f 253/287/93 254/288/94 350/309/40 349/306/34
f 240/274/82 241/275/83 337/310/42 336/307/36
f 227/263/69 228/264/70 324/311/44 323/308/38
f 254/288/94 255/289/95 351/312/46 350/309/40
f 241/275/83 242/276/84 338/313/48 337/310/42
f 228/264/70 229/265/71 325/314/50 324/311/44
f 255/289/95 256/290/96 352/315/52 351/312/46
f 242/276/84 243/277/85 339/316/54 338/313/48
f 229/265/71 230/266/72 326/317/56 325/314/50
f 256/290/96 225/262/68 322/305/32 352/315/52
f 243/277/85 244/278/86 340/318/58 339/316/54
f 230/266/72 231/267/73 327/319/60 326/317/56
f 244/278/86 245/279/1 341/320/4 340/318/58
f 231/267/73 232/268/74 328/321/63 327/319/60
f 245/279/1 246/280/2 342/322/3 341/320/4
f 232/268/74 233/269/75 329/323/66 328/321/63
f 246/280/2 247/281/87 343/324/8 342/322/3
f 233/269/75 234/227/76 330/230/12 329/323/66
f 247/281/87 248/282/88 344/296/7 343/324/8
f 290/325/67 289/326/68 322/305/32 321/304/31
f 291/327/69 290/325/67 321/304/31 323/308/38
f 292/328/70 291/327/69 323/308/38 324/311/44
f 293/329/71 292/328/70 324/311/44 325/314/50
f 294/330/72 293/329/71 325/314/50 326/317/56
f 295/331/73 294/330/72 326/317/56 327/319/60
f 296/332/74 295/331/73 327/319/60 328/321/63
f 297/333/75 296/332/74 328/321/63 329/323/66
f 298/334/76 297/333/75 329/323/66 330/230/12
f 299/335/77 298/334/76 330/230/12 331/229/11
f 300/336/78 299/335/77 331/229/11 332/297/16
f 301/337/79 300/336/78 332/297/16 333/299/20
f 302/338/80 301/337/79 333/299/20 334/301/24
f 303/339/81 302/338/80 334/301/24 335/303/28
f 304/291/82 303/339/81 335/303/28 336/307/36
f 305/292/83 304/291/82 336/307/36 337/310/42
f 306/340/84 305/292/83 337/310/42 338/313/48
f 307/341/85 306/340/84 338/313/48 339/316/54
f 308/342/86 307/341/85 339/316/54 340/318/58
f 309/343/1 308/342/86 340/318/58 341/320/4
f 310/344/2 309/343/1 341/320/4 342/322/3
f 311/345/87 310/344/2 342/322/3 343/324/8
f 312/346/97 311/345/87 343/324/8 344/296/7
f 313/347/89 312/346/97 344/296/7 345/295/14
f 314/348/90 313/347/89 345/295/14 346/298/18
f 315/349/91 314/348/90 346/298/18 347/300/22
f 316/350/92 315/349/91 347/300/22 348/302/26
f 317/351/93 316/350/92 348/302/26 349/306/34
f 318/352/94 317/351/93 349/306/34 350/309/40
f 319/353/95 318/352/94 350/309/40 351/312/46
f 320/354/96 319/353/95 351/312/46 352/315/52
f 289/326/68 320/354/96 352/315/52 322/305/32
f 369/293/42 370/355/48 385/356/98
f 291/327/69 292/328/70 356/357/44 355/358/38
f 318/352/94 319/353/95 383/359/46 382/360/40
f 305/292/83 306/340/84 370/355/48 369/293/42
f 292/328/70 293/329/71 357/361/50 356/357/44
f 319/353/95 320/354/96 384/362/52 383/359/46
f 306/340/84 307/341/85 371/363/54 370/355/48
f 293/329/71 294/330/72 358/364/56 357/361/50
f 320/354/96 289/326/68 353/365/32 384/362/52
f 307/341/85 308/342/86 372/366/58 371/363/54
f 294/330/72 295/331/73 359/367/60 358/364/56
f 308/342/86 309/343/1 373/368/4 372/366/58
f 295/331/73 296/332/74 360/369/63 359/367/60
f 309/343/1 310/344/2 374/370/3 373/368/4
f 296/332/74 297/333/75 361/371/66 360/369/63
f 310/344/2 311/345/87 375/372/8 374/370/3
f 297/333/75 298/334/76 362/373/12 361/371/66
f 311/345/87 312/346/97 376/374/7 375/372/8
f 298/334/76 299/335/77 363/375/11 362/373/12
f 312/346/97 313/347/89 377/376/14 376/374/7
f 299/335/77 300/336/78 364/377/16 363/375/11
f 313/347/89 314/348/90 378/378/18 377/376/14
f 300/336/78 301/337/79 365/379/20 364/377/16
f 314/348/90 315/349/91 379/380/22 378/378/18
f 301/337/79 302/338/80 366/381/24 365/379/20
f 315/349/91 316/350/92 380/382/26 379/380/22
f 302/338/80 303/339/81 367/383/28 366/381/24
f 289/326/68 290/325/67 354/384/31 353/365/32
f 316/350/92 317/351/93 381/385/34 380/382/26
f 303/339/81 304/291/82 368/294/36 367/383/28
f 290/325/67 291/327/69 355/358/38 354/384/31
f 317/351/93 318/352/94 382/360/40 381/385/34
f 377/376/14 378/378/18 385/356/98
f 383/359/46 384/362/52 385/356/98
f 362/373/12 363/375/11 385/356/98
f 353/365/32 354/384/31 385/356/98
f 354/384/31 355/358/38 385/356/98
f 385/356/98 379/380/22 380/382/26
f 353/365/32 385/356/98 384/362/52
f 380/382/26 381/385/34 385/356/98
f 381/385/34 382/360/40 385/356/98
f 382/360/40 383/359/46 385/356/98
f 385/356/98 355/358/38 356/357/44
f 356/357/44 357/361/50 385/356/98
f 357/361/50 358/364/56 385/356/98
f 358/364/56 359/367/60 385/356/98
f 359/367/60 360/369/63 385/356/98
f 360/369/63 361/371/66 385/356/98
f 361/371/66 362/373/12 385/356/98
f 371/363/54 385/356/98 370/355/48
f 385/356/98 363/375/11 364/377/16
f 365/379/20 385/356/98 364/377/16
f 365/379/20 366/381/24 385/356/98
f 366/381/24 367/383/28 385/356/98
f 367/383/28 368/294/36 385/356/98
f 368/294/36 369/293/42 385/356/98
f 378/378/18 379/380/22 385/356/98
f 385/356/98 371/363/54 372/366/58
f 372/366/58 373/368/4 385/356/98
f 373/368/4 374/370/3 385/356/98
f 374/370/3 375/372/8 385/356/98
f 375/372/8 376/374/7 385/356/98
f 376/374/7 377/376/14 385/356/98
