# Blender v2.79 (sub 0) OBJ File: 'SeaTemple1.blend'
# www.blender.org
mtllib SeaTempleRoof3_Low.mtl
o Plane.030
v -0.584773 0.305884 3.042916
v 0.590429 0.306022 3.042916
v -0.584773 0.305884 -6.136203
v 0.590429 0.306022 -6.136203
v -1.148457 -0.215774 3.042916
v -1.148457 -0.215774 -6.136203
v 1.142351 -0.192041 3.042916
v 1.142351 -0.192041 -6.136203
v -0.584773 0.305884 3.093284
v 0.590429 0.306022 3.093284
v -1.148457 -0.215774 3.093284
v 1.142351 -0.192041 3.093284
v -0.569494 0.199174 3.042916
v 0.575469 0.199174 3.042916
v -0.569494 0.199174 -6.136203
v 0.575469 0.199174 -6.136203
v -1.118813 -0.312823 3.042916
v -1.118813 -0.312823 -6.136203
v 1.113287 -0.289620 3.042916
v 1.113287 -0.289620 -6.136203
v -0.569494 0.199174 3.093284
v 0.575469 0.199174 3.093284
v -1.118813 -0.312823 3.093284
v 1.113287 -0.289620 3.093284
vt 0.039531 0.226442
vt 0.040920 0.098872
vt 0.967163 0.117335
vt 0.964601 0.229980
vt 0.988431 0.312121
vt 0.020558 0.322044
vt 0.027867 0.014949
vt 0.988797 0.040919
vt 0.035356 0.099335
vt 0.021473 0.015441
vt 0.013058 0.321120
vt 0.033337 0.225756
vt 0.005498 0.418672
vt 0.987193 0.418671
vt 0.987194 0.541123
vt 0.005498 0.541125
vt 0.005497 0.338361
vt 0.987193 0.338361
vt 0.987194 0.618848
vt 0.005498 0.618850
vt 0.000111 0.618850
vt 0.000111 0.541125
vt 0.000111 0.418672
vt 0.000111 0.338361
vt 0.977635 0.116200
vt 0.976008 0.231426
vt 0.988644 0.329032
vt 0.019660 0.338139
vt 0.999889 0.314119
vt 0.027357 0.000111
vt 0.989159 0.024147
vt 0.999889 0.039045
vt 0.020469 0.227703
vt 0.024033 0.097139
vt 0.000111 0.324374
vt 0.009872 0.012064
vt 0.020108 0.000786
vt 0.011574 0.337475
vn -0.3648 0.9311 0.0000
vn 0.3588 0.9334 0.0000
vn 0.2773 0.7214 -0.6345
vn -0.2822 0.7204 -0.6335
vn -0.7688 0.2076 -0.6048
vn -0.9654 0.2608 0.0000
vn 0.9628 0.2702 0.0000
vn 0.7670 0.2152 -0.6044
vn 0.2773 0.7214 0.6345
vn 0.7670 0.2152 0.6044
vn -0.7688 0.2076 0.6048
vn -0.2822 0.7204 0.6335
vn 0.3664 -0.9304 0.0000
vn 0.2200 -0.5588 -0.7996
vn -0.2173 -0.5622 -0.7979
vn -0.3605 -0.9327 0.0000
vn -0.2590 -0.9658 0.0000
vn -0.2151 -0.8020 -0.5571
vn 0.2229 -0.7998 -0.5574
vn 0.2685 -0.9633 0.0000
vn 0.2229 -0.7998 0.5574
vn -0.2173 -0.5622 0.7979
vn 0.2200 -0.5588 0.7996
vn -0.2151 -0.8020 0.5571
usemtl None
s 1
f 1/1/1 2/2/2 4/3/3 3/4/4
f 1/1/1 3/4/4 6/5/5 5/6/6
f 4/3/3 2/2/2 7/7/7 8/8/8
f 7/7/7 2/2/2 10/9/9 12/10/10
f 1/1/1 5/6/6 11/11/11 9/12/12
f 2/2/2 1/1/1 9/12/12 10/9/9
f 13/13/13 15/14/14 16/15/15 14/16/16
f 13/13/13 17/17/17 18/18/18 15/14/14
f 16/15/15 20/19/19 19/20/20 14/16/16
f 19/20/20 24/21/21 22/22/22 14/16/16
f 13/13/13 21/23/23 23/24/24 17/17/17
f 14/16/16 22/22/22 21/23/23 13/13/13
f 3/4/4 4/3/3 16/25/15 15/26/14
f 5/6/6 6/5/5 18/27/18 17/28/17
f 6/5/5 3/4/4 15/26/14 18/29/18
f 8/8/8 7/7/7 19/30/20 20/31/19
f 4/3/3 8/8/8 20/32/19 16/25/15
f 10/9/9 9/12/12 21/33/23 22/34/22
f 9/12/12 11/11/11 23/35/24 21/33/23
f 12/10/10 10/9/9 22/34/22 24/36/21
f 7/7/7 12/10/10 24/37/21 19/30/20
f 11/11/11 5/6/6 17/28/17 23/38/24
