# Blender v2.79 (sub 0) OBJ File: ''
# www.blender.org
mtllib WallVsijas_Low.mtl
o Cube.003_Cube.006
v -0.105863 -0.830000 1.665000
v -0.105863 0.830000 1.665000
v -0.105863 -0.830000 -1.665000
v -0.105863 0.830000 -1.665000
v 0.105863 -0.830000 1.665000
v 0.105863 0.830000 1.665000
v 0.105863 -0.830000 -1.665000
v 0.105863 0.830000 -1.665000
vt 0.000100 0.750000
vt 0.250000 0.999900
vt 0.000100 0.999900
vt 0.000100 0.499900
vt 0.000100 0.250000
vt 0.250000 0.250000
vt 0.250000 0.499900
vt 0.499900 0.499900
vt 0.499900 0.250000
vt 0.749800 0.250000
vt 0.749800 0.499900
vt 0.250000 0.749800
vt 0.499900 0.749800
vt 0.250000 0.000100
vt 0.499900 0.000100
vt 0.250000 0.750000
vn -0.5773 0.5773 0.5773
vn -0.5773 -0.5773 -0.5773
vn -0.5773 -0.5773 0.5773
vn -0.5773 0.5773 -0.5773
vn 0.5773 0.5773 -0.5773
vn 0.5773 -0.5773 -0.5773
vn 0.5773 -0.5773 0.5773
vn 0.5773 0.5773 0.5773
usemtl None
s 1
f 2/1/1 3/2/2 1/3/3
f 3/4/2 4/5/4 8/6/5 7/7/6
f 8/6/5 5/8/7 7/7/6
f 5/8/7 6/9/8 2/10/1 1/11/3
f 3/12/2 7/7/6 5/8/7 1/13/3
f 8/6/5 4/14/4 2/15/1 6/9/8
f 2/1/1 4/16/4 3/2/2
f 8/6/5 6/9/8 5/8/7
